…
当我们编写调试完 R 代码后,我们通过collect()将数据从远程数据库中拉取到本地R中.

temp_tbl <- temp %>% collect()

## Warning: ORDER BY is ignored in subqueries without LIMIT
## i Do you need to move arrange() later in the pipeline or use window_order() instead?

temp_tbl

## # A tibble: 1,201 x 3
##    tailnum delay     n
##    <chr>   <dbl> <int>
##  1 <NA>    NA     2512
##  2 N0EGMQ   9.98   371
##  3 N10156  12.7    153
##  4 N10575  20.7    289
##  5 N11106  14.9    129
##  6 N11107  15.0    148
##  7 N11109  14.9    148
##  8 N11113  15.8    138
##  9 N11119  30.3    148
## 10 N11121  10.3    154
## # ... with 1,191 more rows
…
