…
## The following objects are masked from 'package:stats':
## 
##     filter, lag

## The following objects are masked from 'package:base':
## 
##     intersect, setdiff, setequal, union

library(readr)

relig_income %>% 
  pivot_longer(cols = !religion,names_to = 'income',values_to = "count")

## # A tibble: 180 x 3
##    religion income             count
##    <chr>    <chr>              <dbl>
##  1 Agnostic <$10k                 27
##  2 Agnostic $10-20k               34
##  3 Agnostic $20-30k               60
##  4 Agnostic $30-40k               81
##  5 Agnostic $40-50k               76
##  6 Agnostic $50-75k              137
##  7 Agnostic $75-100k             122
##  8 Agnostic $100-150k            109
##  9 Agnostic >150k                 84
## 10 Agnostic Don't know/refused    96
## # ... with 170 more rows
…
names_to这个参数是新增的列名

values_to是新增的存储之前数据集中数据的列名

列名带数字

billboard %>% 
  pivot_longer(
    cols = starts_with("wk"), 
    names_to = "week", 
    values_to = "rank",
    values_drop_na = TRUE
  )

## # A tibble: 5,307 x 5
##    artist  track                   date.entered week   rank
##    <chr>   <chr>                   <date>       <chr> <dbl>
##  1 2 Pac   Baby Don't Cry (Keep... 2000-02-26   wk1      87
##  2 2 Pac   Baby Don't Cry (Keep... 2000-02-26   wk2      82
##  3 2 Pac   Baby Don't Cry (Keep... 2000-02-26   wk3      72
##  4 2 Pac   Baby Don't Cry (Keep... 2000-02-26   wk4      77
##  5 2 Pac   Baby Don't Cry (Keep... 2000-02-26   wk5      87
##  6 2 Pac   Baby Don't Cry (Keep... 2000-02-26   wk6      94
##  7 2 Pac   Baby Don't Cry (Keep... 2000-02-26   wk7      99
##  8 2Ge+her The Hardest Part Of ... 2000-09-02   wk1      91
##  9 2Ge+her The Hardest Part Of ... 2000-09-02   wk2      87
## 10 2Ge+her The Hardest Part Of ... 2000-09-02   wk3      92
## # ... with 5,297 more rows

names_prefix 调整内容前缀，配合names_transform参数使用

billboard %>% 
  pivot_longer(
    cols = starts_with("wk"), 
    names_to = "week", 
    names_prefix = "wk",
    names_transform = list(week = as.integer),
    values_to = "rank",
    values_drop_na = TRUE,
  )

## # A tibble: 5,307 x 5
##    artist  track                   date.entered  week  rank
##    <chr>   <chr>                   <date>       <int> <dbl>
##  1 2 Pac   Baby Don't Cry (Keep... 2000-02-26       1    87
##  2 2 Pac   Baby Don't Cry (Keep... 2000-02-26       2    82
##  3 2 Pac   Baby Don't Cry (Keep... 2000-02-26       3    72
##  4 2 Pac   Baby Don't Cry (Keep... 2000-02-26       4    77
##  5 2 Pac   Baby Don't Cry (Keep... 2000-02-26       5    87
##  6 2 Pac   Baby Don't Cry (Keep... 2000-02-26       6    94
##  7 2 Pac   Baby Don't Cry (Keep... 2000-02-26       7    99
##  8 2Ge+her The Hardest Part Of ... 2000-09-02       1    91
##  9 2Ge+her The Hardest Part Of ... 2000-09-02       2    87
## 10 2Ge+her The Hardest Part Of ... 2000-09-02       3    92
## # ... with 5,297 more rows
…
多变量列名

该案列设计比较复杂的正则表达式,new_?(.*)_(.)(.*)需要一定正则表达式基础。
new_?表示匹配new或new_，(.*)匹配任意0次或多次任意字符。

正则表达式介绍

who %>% pivot_longer(
  cols = new_sp_m014:newrel_f65,
  names_to = c("diagnosis", "gender", "age"), 
  names_pattern = "new_?(.*)_(.)(.*)",
  values_to = "count"
)

## # A tibble: 405,440 x 8
##    country     iso2  iso3   year diagnosis gender age   count
##    <chr>       <chr> <chr> <int> <chr>     <chr>  <chr> <int>
##  1 Afghanistan AF    AFG    1980 sp        m      014      NA
##  2 Afghanistan AF    AFG    1980 sp        m      1524     NA
##  3 Afghanistan AF    AFG    1980 sp        m      2534     NA
##  4 Afghanistan AF    AFG    1980 sp        m      3544     NA
##  5 Afghanistan AF    AFG    1980 sp        m      4554     NA
##  6 Afghanistan AF    AFG    1980 sp        m      5564     NA
##  7 Afghanistan AF    AFG    1980 sp        m      65       NA
##  8 Afghanistan AF    AFG    1980 sp        f      014      NA
##  9 Afghanistan AF    AFG    1980 sp        f      1524     NA
## 10 Afghanistan AF    AFG    1980 sp        f      2534     NA
## # ... with 405,430 more rows
…
  cols = new_sp_m014:newrel_f65,
  names_to = c("diagnosis", "gender", "age"), 
  names_pattern = "new_?(.*)_(.)(.*)",
  names_transform = list(
    gender = ~ readr::parse_factor(.x, levels = c("f", "m")),
    age = ~ readr::parse_factor(
      .x,
      levels = c("014", "1524", "2534", "3544", "4554", "5564", "65"), 
      ordered = TRUE
    )
  ),
  values_to = "count",
)

## # A tibble: 405,440 x 8
##    country     iso2  iso3   year diagnosis gender age   count
##    <chr>       <chr> <chr> <int> <chr>     <fct>  <ord> <int>
##  1 Afghanistan AF    AFG    1980 sp        m      014      NA
##  2 Afghanistan AF    AFG    1980 sp        m      1524     NA
##  3 Afghanistan AF    AFG    1980 sp        m      2534     NA
##  4 Afghanistan AF    AFG    1980 sp        m      3544     NA
##  5 Afghanistan AF    AFG    1980 sp        m      4554     NA
##  6 Afghanistan AF    AFG    1980 sp        m      5564     NA
##  7 Afghanistan AF    AFG    1980 sp        m      65       NA
##  8 Afghanistan AF    AFG    1980 sp        f      014      NA
##  9 Afghanistan AF    AFG    1980 sp        f      1524     NA
## 10 Afghanistan AF    AFG    1980 sp        f      2534     NA
## # ... with 405,430 more rows
…
anscombe %>% 
  pivot_longer(everything(), 
    names_to = c(".value", "set"), 
    names_pattern = "(.)(.)"
  ) %>% 
  arrange(set)

## # A tibble: 44 x 3
##    set       x     y
##    <chr> <dbl> <dbl>
##  1 1        10  8.04
##  2 1         8  6.95
##  3 1        13  7.58
##  4 1         9  8.81
##  5 1        11  8.33
##  6 1        14  9.96
##  7 1         6  7.24
##  8 1         4  4.26
##  9 1        12 10.8 
## 10 1         7  4.82
## # ... with 34 more rows
…
从多个变量生成新列名

production <- expand_grid(
    product = c("A", "B"), 
    country = c("AI", "EI"), 
    year = 2000:2014
  ) %>%
  filter((product == "A" & country == "AI") | product == "B") %>% 
  mutate(production = rnorm(nrow(.)))
production

## # A tibble: 45 x 4
##    product country  year production
##    <chr>   <chr>   <int>      <dbl>
##  1 A       AI       2000    -0.0441
##  2 A       AI       2001     0.566 
##  3 A       AI       2002     0.991 
##  4 A       AI       2003     0.657 
##  5 A       AI       2004    -0.810 
##  6 A       AI       2005    -0.917 
##  7 A       AI       2006     1.43  
##  8 A       AI       2007     0.346 
##  9 A       AI       2008     0.416 
## 10 A       AI       2009     0.517 
## # ... with 35 more rows
…
多值变宽

us_rent_income %>% 
  pivot_wider(names_from = variable, values_from = c(estimate, moe))

## # A tibble: 52 x 6
##    GEOID NAME                 estimate_income estimate_rent moe_income moe_rent
##    <chr> <chr>                          <dbl>         <dbl>      <dbl>    <dbl>
##  1 01    Alabama                        24476           747        136        3
##  2 02    Alaska                         32940          1200        508       13
##  3 04    Arizona                        27517           972        148        4
##  4 05    Arkansas                       23789           709        165        5
##  5 06    California                     29454          1358        109        3
##  6 08    Colorado                       32401          1125        109        5
##  7 09    Connecticut                    35326          1123        195        5
##  8 10    Delaware                       31560          1076        247       10
##  9 11    District of Columbia           43198          1424        681       17
## 10 12    Florida                        25952          1077         70        3
## # ... with 42 more rows
…
